% time	cellId	IMSI	RNTI	sinrLinear	componentCarrierId
0.041	1	1	1	5324.58	0
0.081	1	1	1	5324.57	0
0.121	2	1	1	5324.57	0
0.161	2	1	1	5324.57	0
0.201	2	1	1	5324.57	0
0.241	2	1	1	5324.57	0
0.281	2	1	1	5324.57	0
